{
    "android": {
        "sdkboxplay": {
            "leaderboards": [
                {
                    "id": "CgkI0sux8sMWEAIQAA", 
                    "name": "ldb1"
                }
            ], 
            "achievements": [
                {
                    "incremental": false, 
                    "id": "CgkIus27jccLEAIQAQ",
                    "name": "¿Qué tiempo es este?"
                }, 
                {
                    "incremental": false, 
                    "id": "CgkIus27jccLEAIQAg",
                    "name": "Confía en la suerte"
                }, 
                {
                    "incremental": false, 
                    "id": "CgkIus27jccLEAIQAw",
                    "name": "Bon profit"
                }
            ], 
            "clound_save": false, 
            "connect_on_start": false, 
            "show_achievement_notification": true, 
            "debug": true
        }
    }, 
    "ios": {
        "sdkboxplay": {
            "leaderboards": [
                {
                    "id": "ldb1", 
                    "name": "ldb1"
                }
            ], 
            "achievements": [
                {
                    "incremental": false, 
                    "id": "es.ua.eps.mastermoviles.projecttime.level1",
                    "name": "What time is it?"
                }, 
                {
                    "incremental": false, 
                    "id": "es.ua.eps.mastermoviles.projecttime.goodluck",
                    "name": "Good luck"
                }, 
                {
                    "incremental": false, 
                    "id": "es.ua.eps.mastermoviles.projecttime.bonprofit",
                    "name": "Bon profit"
                } 
            ], 
            "connect_on_start": false, 
            "show_achievement_notification": true, 
            "debug": true
        }
    }
}
